ISSS624 - Take home Exercise 7
…
# Patch in results using the second set of temperature variables
data$mean_temperature_c <- coalesce(data$mean_temperature_c, data$mean_temperature_a_c)
data$maximum_temperature_c <- coalesce(data$maximum_temperature_c, data$maximum_temperature_a_c)
data$minimum_temperature_c <- coalesce(data$minimum_temperature_c, data$minimum_temperature_a_c)

# Remove the now-redundant second set of temperature variables
data %>% 
  select(-c("mean_temperature_a_c", "maximum_temperature_a_c", "minimum_temperature_a_c"))

# A tibble: 155 × 13
   station year  month day   daily_rainfall_total_mm highest_30_min_rainfall_mm
   <chr>   <chr> <chr> <chr> <chr>                   <chr>                     
 1 Changi  1983  7     1     8.7                     "\u0097"                  
 2 Changi  1983  7     2     0                       "\u0097"                  
 3 Changi  1983  7     3     5.3                     "\u0097"                  
 4 Changi  1983  7     4     6.2                     "\u0097"                  
 5 Changi  1983  7     5     39.5                    "\u0097"                  
 6 Changi  1983  7     6     14.9                    "\u0097"                  
 7 Changi  1983  7     7     0                       "\u0097"                  
 8 Changi  1983  7     8     0                       "\u0097"                  
 9 Changi  1983  7     9     10.5                    "\u0097"                  
10 Changi  1983  7     10    55.5                    "\u0097"                  
# ℹ 145 more rows
# ℹ 7 more variables: highest_60_min_rainfall_mm <chr>,
#   highest_120_min_rainfall_mm <chr>, mean_temperature_c <chr>,
#   maximum_temperature_c <chr>, minimum_temperature_c <chr>,
#   mean_wind_speed_km_h <chr>, max_wind_speed_km_h <chr>
…
